[
  {
    "Id": 1,
    "Name": "Reported Scans"
  },
  {
    "Id": 2,
    "Name": "My Scan History"
  },
  {
    "Id": 3,
    "Name": "Scan Product"
  },
  {
    "Id": 4,
    "Name": "Offline Report Non-GPD"
  },
  {
    "Id": 5,
    "Name": "Offline Scan"
  },
  {
    "Id": 6,
    "Name": "Product Journey"
  },
  {
    "Id": 7,
    "Name": "Report GPD Product"
  },
  {
    "Id": 8,
    "Name": "Report Non-GPD Product"
  }
]