[
  {
    "Id": 1,
    "Name": "Smart Agro"
  },
  {
    "Id": 2,
    "Name": "Saksham"
  },
  {
    "Id": 3,
    "Name": "Saksham Bangladesh"
  },
  {
    "Id": 4,
    "Name": "StandaloneApp"
  },
  {
    "Id": 5,
    "Name": "Cropwise Grower"
  },
  {
    "Id": 6,
    "Name": "Sumridhi"
  }
]
