[
  {
    "Id": 1,
    "Order": 1,
    "CountryId": 3,
    "ClientId": 5,
    "FollowUpActionTypeId": 1,
    "FollowUpPickedOptionId": 1,
    "DesiredTransactionResultTypeId": 17
  },
  {
    "Id": 2,
    "Order": 2,
    "CountryId": 3,
    "ClientId": 6,
    "FollowUpActionTypeId": 1,
    "FollowUpPickedOptionId": 1,
    "DesiredTransactionResultTypeId": 17
  },
  {
    "Id": 3,
    "Order": 3,
    "CountryId": 3,
    "ClientId": 5,
    "FollowUpActionTypeId": 1,
    "FollowUpPickedOptionId": 2,
    "DesiredTransactionResultTypeId": 17
  },
  {
    "Id": 4,
    "Order": 4,
    "CountryId": 3,
    "ClientId": 6,
    "FollowUpActionTypeId": 1,
    "FollowUpPickedOptionId": 2,
    "DesiredTransactionResultTypeId": 17
  },
  {
    "Id": 5,
    "Order": 5,
    "CountryId": 3,
    "ClientId": 6,
    "FollowUpActionTypeId": 2,
    "FollowUpPickedOptionId": null,
    "DesiredTransactionResultTypeId": 17
  },
  {
    "Id": 6,
    "Order": 6,
    "CountryId": 3,
    "ClientId": 6,
    "FollowUpActionTypeId": 2,
    "FollowUpPickedOptionId": null,
    "DesiredTransactionResultTypeId": 17
  }
]