[
  {
    "Id": 1,
    "DefinitionRuleId": 20,
    "FollowUpActionTypeId": 3
  },
  {
    "Id": 2,
    "DefinitionRuleId": 21,
    "FollowUpActionTypeId": 3
  },
  {
    "Id": 3,
    "DefinitionRuleId": 22,
    "FollowUpActionTypeId": 3
  },
  {
    "Id": 4,
    "DefinitionRuleId": 23,
    "FollowUpActionTypeId": 3
  },
  {
    "Id": 5,
    "DefinitionRuleId": 24,
    "FollowUpActionTypeId": 3
  },
  {
    "Id": 6,
    "DefinitionRuleId": 25,
    "FollowUpActionTypeId": 3
  },
  {
    "Id": 7,
    "DefinitionRuleId": 26,
    "FollowUpActionTypeId": 3
  },
  {
    "Id": 8,
    "DefinitionRuleId": 27,
    "FollowUpActionTypeId": 3
  },
  {
    "Id": 9,
    "DefinitionRuleId": 28,
    "FollowUpActionTypeId": 3
  },
  {
    "Id": 10,
    "DefinitionRuleId": 29,
    "FollowUpActionTypeId": 3
  },
  {
    "Id": 11,
    "DefinitionRuleId": 30,
    "FollowUpActionTypeId": 3
  },
  {
    "Id": 12,
    "DefinitionRuleId": 31,
    "FollowUpActionTypeId": 3
  }
]
